{
  "type": "service_account",
  "project_id": "project",
  "private_key_id": "key_id",
  "private_key": "private_key",
  "client_email": "mail@mail.com",
  "client_id": "id",
  "auth_uri": "https://accounts.google.com/o/oauth2/auth",
  "token_uri": "https://oauth2.googleapis.com/token",
  "auth_provider_x509_cert_url": "https://www.googleapis.com/oauth2/v1/certs",
  "client_x509_cert_url": "https://www.googleapis.com/robot/v1/metadata/x509/"
}
